<svg xmlns="http://www.w3.org/2000/svg" xmlns:xlink="http://www.w3.org/1999/xlink" width="191.001" height="41.714" viewBox="0 0 191.001 41.714">
  <defs>
    <clipPath id="clip-path">
      <rect width="191.001" height="41.714" fill="none"/>
    </clipPath>
  </defs>
  <g id="Uzbekistan_Airways_logo" clip-path="url(#clip-path)">
    <g id="Uzbekistan_Airways_logo-2" data-name="Uzbekistan_Airways_logo" transform="translate(-20.767 -24.202)">
      <ellipse id="Ellipse_1" data-name="Ellipse 1" cx="18.418" cy="18.23" rx="18.418" ry="18.23" transform="translate(21.767 25.202)" fill="#fcdd53" stroke="#e42a2b" stroke-width="2"/>
      <path id="Path_8" data-name="Path 8" d="M164.374,205.162a3.231,3.231,0,0,1-2.157,1.272h-10.95c-.553-.277-.608-.664,0-.94h6.194a1.7,1.7,0,0,0,1.438-.664,92.108,92.108,0,0,0,5.53-7.41,3.675,3.675,0,0,1-2.212,1.217h-7.576a2.188,2.188,0,0,0-1.88.94c-1.493,1.936-3.042,3.816-4.535,5.751-3.926,4.7-6.636-5.641-1.327-3.982-.719-.94-1.493-1.825-2.212-2.765a1.293,1.293,0,0,0-1.936,0c-3.318,4.2-3.373,10.673,3.539,11.282H161C162.106,208.259,163.268,206.71,164.374,205.162ZM162.106,192a2.182,2.182,0,0,1-1.6.553h-6.692a2.594,2.594,0,0,0-1.936.83l-4.258,5.42,1.217,1.548,1.493-1.825a2.238,2.238,0,0,1,1.825-.774H156.3C158.4,197.751,161.111,193.217,162.106,192Z" transform="translate(-112.152 -157.401)" fill="#478c3e"/>
      <g id="Group_6" data-name="Group 6" transform="translate(64.64 32.155)">
        <path id="Path_9" data-name="Path 9" d="M917.353,147.962l-2.544,9.291h-3.65l4.2-15.263h3.705l3.042,9.235,2.544-9.235h3.65l-4.258,15.263h-3.65Zm-14.71,3.871h3.595l-.221-5.475Zm6.36-9.844,1.217,15.263H906.4l-.166-2.82h-5.033l-1.714,2.82h-3.816l9.622-15.263Zm-16.7,2.986h-4.369l.83-2.986h12.332l-.829,2.986h-4.314l-3.429,12.277h-3.595Zm-15.374,7.355c0,1.714.885,2.876,2.82,2.544,2.71-.553,2.489-3.871-.719-4.2a3.9,3.9,0,0,1-3.429-5.143c1.161-2.489,3.1-3.539,5.917-3.871h.055c2.1-.442,5.254.111,5.585,2.765a3.227,3.227,0,0,1-.111,1.77h-3.429c0-.774-.166-1.493-.94-1.714-2.544-.719-5.751,2.267-.387,3.65,1.383.332,3.263.83,3.65,2.378a6.2,6.2,0,0,1-3.207,6.47,13.38,13.38,0,0,1-6.913.5c-2.544-.885-3.042-2.489-2.6-5.143Zm-2.544-10.341c-1.438,5.088-2.82,10.176-4.2,15.263h-3.65l4.2-15.263Zm-16.922,5.973,7.023-5.973h4.424l-7.521,6.3,3.816,8.959h-4.479l-2.489-6.47-1.991,1.659-1.383,4.811h-3.595l4.258-15.263h3.595Zm-13.936.111h7.189l-.774,2.765h-7.134l-.94,3.429h8.185l-.774,2.986h-11.89l4.2-15.263h11.724l-.83,2.986H844.41Zm-13.715-3.263-.885,3.263h2.765a2.282,2.282,0,0,0,2.323-1.6,1.106,1.106,0,0,0-.664-1.548A14.983,14.983,0,0,0,829.81,144.809Zm-1.659,5.917-1,3.761c2.046,0,4.977.608,5.751-1.936.221-1.327-.719-1.825-1.88-1.825Zm6.3-8.738c1.88,0,3.926.719,3.539,2.986a5.634,5.634,0,0,1-3.429,4.037v.111c2.323,0,2.323,3.042,1.77,4.59-.83,2.433-3.429,3.539-5.862,3.539h-7.742l4.2-15.263Zm-15.263,3.042h-6.968l.885-3.042H824.5l-.719,2.82-10.065,9.4h7.908l-.774,3.042H808.464l.885-3.207Zm-17.2-3.042c-.83,2.986-1.714,5.973-2.544,8.9-.332,1.548-.277,4.148,1.991,3.816,1.825-.221,3.263-2.1,3.65-3.816.774-2.931,1.548-5.917,2.378-8.9h3.595c-1.106,4.037-1.714,9.512-4.314,13.051a7.942,7.942,0,0,1-6.194,2.544c-4.369,0-5.42-1.991-4.867-6.139.83-3.152,1.714-6.3,2.6-9.457Z" transform="translate(-795.554 -141.52)" fill="#fff" fill-rule="evenodd"/>
        <path id="a_small" d="M2240.462,567.174m-33.292-4.811c-1,0-2.71.387-3.042,1.438-.221.442.166.774.553.94C2206.341,564.741,2206.617,563.579,2207.17,562.363Zm-4.258-1.714c0-1.77,2.323-2.433,3.816-2.654,1.438,0,2.489-.055,3.207,1.217a3.015,3.015,0,0,1,.055,1c-.276,1.383-1.714,4.424-1.161,5.7v.055H2206.4v-.664c-4.922,3.539-6.691-2.986-1.6-3.65.443-.111,2.876-.332,2.876-1.272,0-1.548-1.825-.94-2.378-.111a3.526,3.526,0,0,1-.111.387Z" transform="translate(-2123.971 -534.962)" fill="#fff" fill-rule="evenodd"/>
        <path id="Path_10" data-name="Path 10" d="M2240.462,567.174m-33.292-4.811c-1,0-2.71.387-3.042,1.438-.221.442.166.774.553.94C2206.341,564.741,2206.617,563.579,2207.17,562.363Zm-4.258-1.714c0-1.77,2.323-2.433,3.816-2.654,1.438,0,2.489-.055,3.207,1.217a3.015,3.015,0,0,1,.055,1c-.276,1.383-1.714,4.424-1.161,5.7v.055H2206.4v-.664c-4.922,3.539-6.691-2.986-1.6-3.65.443-.111,2.876-.332,2.876-1.272,0-1.548-1.825-.94-2.378-.111a3.526,3.526,0,0,1-.111.387Z" transform="translate(-2093.334 -534.962)" fill="#fff" fill-rule="evenodd"/>
        <path id="Path_11" data-name="Path 11" d="M2369.812,514.917l-2.489,4.756h-2.433l-.221-7.742h2.489l-.111,4.756,2.433-4.756h2.268l-.221,4.756,2.489-4.756h2.6l-4.535,7.742h-2.489Zm-5.364-3.152-.5,1.825h-.111a3.372,3.372,0,0,0-1.659.221,3.921,3.921,0,0,0-1.88,2.71l-.83,3.152h-2.765l2.544-7.742h2.212l-.332,1.051A4.67,4.67,0,0,1,2364.448,511.765Zm-9.014-.94.442-1.825h2.433l-.5,1.825Zm2.046,1.106-2.1,7.742H2353l2.157-7.742Zm25.881,8.959c1.549,0,1.438,0,2.268-1.327l-1.161-7.632h2.82l.332,4.811,2.544-4.811h2.488l-4.756,8.185c-1.272,2.046-2.433,2.323-4.977,2.323h0Zm8.185-3.761h2.268a1.016,1.016,0,0,0,.221,1.106,1.473,1.473,0,0,0,2.212-.664c.221-1.383-2.489-.94-3.429-1.88a1.126,1.126,0,0,1-.332-.83,3.232,3.232,0,0,1,.719-2.1,3.158,3.158,0,0,1,1.161-.719,5.859,5.859,0,0,1,2.157-.332,11.56,11.56,0,0,1,1.382.055c1.382.221,1.382,1.217,1.382,2.267h-2.156l.055-.221c0-.719-.553-.719-1.051-.719a1.129,1.129,0,0,0-1.272,1,.6.6,0,0,0,.443.608c1.991.332,4.092.719,3.263,2.931a3.622,3.622,0,0,1-2.046,1.991,6.317,6.317,0,0,1-2.046.276,5.641,5.641,0,0,1-1.659-.166,2.976,2.976,0,0,1-1.162-.829,2.439,2.439,0,0,1-.276-1.77Z" transform="translate(-2266.871 -488.678)" fill="#fff" fill-rule="evenodd"/>
      </g>
    </g>
  </g>
</svg>
